<?xml version="1.0" encoding="UTF-8" standalone="yes"?>
<svg xmlns="http://www.w3.org/2000/svg" xmlns:xlink="http://www.w3.org/1999/xlink" width="221.33333333333331px" height="106.66666666666666px" viewBox="0 0 166 80" version="1.1">
  <defs>
    <clipPath id="clip1">
      <path d="M 0.199219 0.199219 L 79.417969 0.199219 L 79.417969 79.800781 L 0.199219 79.800781 Z M 0.199219 0.199219 "/>
    </clipPath>
  </defs>
  <g id="surface1">
    <g clip-path="url(#clip1)" clip-rule="nonzero">
      <path style=" stroke:none;fill-rule:nonzero;fill:rgb(0%,0%,0%);fill-opacity:1;" d="M 79.417969 3.890625 L 79.417969 76.105469 C 79.417969 78.078125 77.722656 79.800781 75.859375 79.800781 L 3.917969 79.800781 C 1.898438 79.800781 0.199219 78.078125 0.199219 76.105469 L 0.199219 3.890625 C 0.199219 1.839844 1.898438 0.199219 3.917969 0.199219 L 75.859375 0.199219 C 77.722656 0.199219 79.417969 1.839844 79.417969 3.890625 "/>
    </g>
    <path style=" stroke:none;fill-rule:nonzero;fill:rgb(100%,100%,100%);fill-opacity:1;" d="M 32.636719 30.417969 C 32.636719 29.433594 32 28.800781 31.023438 28.800781 L 29.746094 28.800781 C 28.640625 28.800781 28.144531 29.355469 27.773438 31.007812 L 24.160156 46.777344 L 23.355469 46.777344 C 22.136719 46.777344 21.625 46.472656 21.195312 44.742188 L 17.585938 30.992188 L 17.546875 30.84375 C 17.269531 29.792969 17.011719 28.800781 15.761719 28.800781 L 14.410156 28.800781 C 13.320312 28.800781 12.722656 29.375 12.722656 30.417969 C 12.722656 31.054688 12.894531 31.996094 13.265625 33.398438 L 17.101562 47.144531 C 17.785156 49.738281 19.1875 50.847656 21.777344 50.847656 L 23.316406 50.847656 C 23.152344 51.710938 22.808594 53.488281 22.589844 54.160156 C 21.886719 56.363281 20.796875 56.824219 18.921875 56.824219 C 17.371094 56.824219 16.351562 56.703125 15.613281 56.617188 C 15.167969 56.566406 14.8125 56.523438 14.484375 56.523438 C 13.601562 56.523438 13.097656 57.058594 13.097656 57.992188 L 13.097656 58.898438 C 13.097656 59.933594 13.628906 60.25 14.164062 60.480469 C 15.078125 60.894531 16.226562 61.121094 19.671875 61.121094 C 23.132812 61.121094 25.695312 59.257812 26.53125 56.132812 C 28.054688 50.46875 32.132812 33.253906 32.171875 33.089844 C 32.171875 33.089844 32.636719 31.265625 32.636719 30.417969 "/>
    <path style=" stroke:none;fill-rule:nonzero;fill:rgb(100%,100%,100%);fill-opacity:1;" d="M 42.863281 20.75 C 42.863281 18.972656 42.683594 17.238281 40.5 17.238281 L 37.265625 17.238281 C 36.679688 17.238281 35.128906 17.238281 35.128906 18.785156 L 35.128906 20.21875 C 35.128906 20.828125 35.425781 21.835938 37.417969 21.835938 L 38.210938 21.835938 L 38.210938 48.851562 C 38.210938 50.292969 38.503906 51.074219 40.046875 51.074219 L 41.097656 51.074219 C 42.5625 51.074219 42.863281 50.183594 42.863281 48.851562 Z M 42.863281 20.75 "/>
    <path style=" stroke:none;fill-rule:nonzero;fill:rgb(100%,100%,100%);fill-opacity:1;" d="M 62.917969 37.589844 L 53.117188 37.597656 C 53.265625 33.542969 54.796875 31.804688 58.171875 31.804688 C 61.496094 31.800781 62.816406 33.777344 62.917969 37.589844 M 67.191406 38.570312 C 67.191406 34.15625 66.183594 28.195312 58.089844 28.195312 C 51.308594 28.195312 48.285156 31.914062 48.285156 40.242188 C 48.285156 48.355469 51.109375 51.375 58.691406 51.375 C 62.078125 51.375 64.300781 50.910156 65.171875 50.511719 C 65.714844 50.277344 66.242188 49.964844 66.242188 48.925781 L 66.242188 48.097656 C 66.242188 47.160156 65.738281 46.625 64.859375 46.625 C 64.550781 46.625 64.234375 46.691406 63.832031 46.769531 C 63.054688 46.925781 61.878906 47.15625 59.59375 47.15625 C 53.902344 47.15625 53.191406 46.121094 53.027344 41.402344 L 63.78125 41.402344 C 66.367188 41.402344 67.191406 40.273438 67.191406 38.570312 "/>
    <path style=" stroke:none;fill-rule:nonzero;fill:rgb(0%,0%,0%);fill-opacity:1;" d="M 111.644531 26.734375 L 111.644531 30.007812 L 98.609375 30.007812 L 98.609375 39.421875 L 110.3125 39.421875 L 110.3125 42.625 L 98.609375 42.625 L 98.609375 53.265625 L 95.015625 53.265625 L 95.015625 26.734375 Z M 111.644531 26.734375 "/>
    <path style=" stroke:none;fill-rule:nonzero;fill:rgb(0%,0%,0%);fill-opacity:1;" d="M 115.941406 53.265625 L 115.941406 26.734375 L 132.757812 26.734375 L 132.757812 29.9375 L 119.535156 29.9375 L 119.535156 38.53125 L 131.050781 38.53125 L 131.050781 41.582031 L 119.535156 41.582031 L 119.535156 50.066406 L 133.125 50.066406 L 133.125 53.265625 Z M 115.941406 53.265625 "/>
    <path style=" stroke:none;fill-rule:nonzero;fill:rgb(0%,0%,0%);fill-opacity:1;" d="M 139.050781 26.734375 L 143.71875 26.734375 L 152.050781 47.871094 L 160.089844 26.734375 L 164.570312 26.734375 L 165.679688 53.265625 L 162.015625 53.265625 L 161.308594 32.984375 L 153.347656 53.230469 L 150.460938 53.230469 L 142.277344 32.984375 L 141.605469 53.265625 L 137.976562 53.265625 Z M 139.050781 26.734375 "/>
  </g>
</svg>