<?xml version="1.0" encoding="UTF-8" ?>
<!DOCTYPE svg PUBLIC "-//W3C//DTD SVG 1.1//EN" "http://www.w3.org/Graphics/SVG/1.1/DTD/svg11.dtd">
<svg width="502pt" height="119pt" viewBox="0 0 502 119" version="1.1" xmlns="http://www.w3.org/2000/svg">
<g id="#ffffffff">
<path fill="#ffffff" opacity="1.00" d=" M 420.15 27.05 C 426.06 21.83 434.51 21.37 442.01 21.75 C 448.82 22.17 456.62 24.38 460.08 30.82 C 463.19 37.17 462.97 44.75 461.05 51.42 C 457.93 60.92 449.51 67.01 442.66 73.74 C 440.37 75.80 438.39 78.17 436.56 80.63 C 438.58 80.66 440.62 80.68 442.65 80.67 C 449.22 80.60 455.79 80.63 462.36 80.75 C 462.41 85.62 462.34 90.48 462.40 95.35 C 446.09 95.47 429.78 95.45 413.47 95.36 C 413.39 84.63 417.24 73.83 425.24 66.48 C 429.39 62.53 433.38 58.42 437.41 54.35 C 440.14 51.58 442.70 48.18 442.73 44.10 C 442.85 40.87 443.18 36.87 440.44 34.55 C 438.83 33.97 436.98 33.90 435.38 34.52 C 432.83 36.42 432.65 39.90 432.47 42.80 C 432.45 44.10 432.45 45.40 432.46 46.71 C 426.38 46.76 420.29 46.76 414.21 46.70 C 414.43 39.87 414.81 32.05 420.15 27.05 Z" />
<path fill="#ffffff" opacity="1.00" d=" M 333.16 23.58 C 340.10 23.21 347.80 23.14 353.64 27.51 C 359.07 31.51 361.08 38.37 362.03 44.74 C 363.08 52.17 362.95 59.72 362.66 67.20 C 362.16 74.44 361.03 82.07 356.55 88.02 C 351.71 93.54 343.93 94.71 336.97 94.48 C 330.49 94.41 323.44 92.64 319.36 87.21 C 315.04 80.65 314.10 72.62 313.70 64.97 C 313.39 56.11 313.53 47.11 315.77 38.47 C 317.14 34.66 318.92 30.78 322.12 28.14 C 325.21 25.48 329.26 24.41 333.16 23.58 M 335.38 36.36 C 333.12 38.21 333.00 41.44 332.62 44.10 C 332.03 52.07 332.22 60.08 332.31 68.06 C 332.48 72.07 332.39 76.26 333.96 80.03 C 335.27 83.39 340.78 83.61 342.40 80.42 C 343.85 77.51 343.91 74.17 344.17 71.00 C 344.45 63.34 344.42 55.67 344.21 48.01 C 343.99 44.73 343.92 41.33 342.66 38.25 C 341.66 35.39 337.68 34.74 335.38 36.36 Z" />
<path fill="#ffffff" opacity="1.00" d=" M 207.55 25.01 C 211.01 24.39 214.55 24.84 218.05 24.74 C 225.15 24.87 232.27 24.44 239.35 25.08 C 245.69 26.28 251.16 30.81 253.18 36.98 C 255.44 45.21 255.21 55.44 248.80 61.82 C 242.56 67.71 233.40 67.38 225.42 67.35 C 225.53 72.48 225.42 77.61 225.46 82.74 C 225.49 86.29 225.47 89.84 225.45 93.39 C 219.45 93.40 213.45 93.40 207.46 93.40 C 207.38 84.39 207.52 75.37 207.33 66.36 C 207.61 56.46 207.35 46.55 207.45 36.65 C 207.51 32.77 207.28 28.89 207.55 25.01 M 225.46 37.59 C 225.47 43.21 225.47 48.83 225.46 54.45 C 228.85 54.50 233.37 54.66 234.95 50.91 C 236.16 47.41 236.38 42.95 234.11 39.81 C 232.06 37.17 228.40 37.73 225.46 37.59 Z" />
<path fill="#ffffff" opacity="1.00" d=" M 260.17 24.70 C 269.45 24.73 278.74 24.70 288.02 24.72 C 293.33 24.73 299.16 25.89 302.91 29.98 C 305.43 32.54 306.16 36.16 307.17 39.48 C 307.32 44.94 307.13 51.07 303.40 55.43 C 301.47 57.79 298.46 58.70 295.58 59.22 C 299.19 60.12 303.35 61.43 304.87 65.22 C 308.25 73.01 305.54 81.73 307.20 89.84 C 308.10 91.04 309.03 92.21 309.98 93.37 C 303.36 93.46 296.74 93.45 290.12 93.38 C 287.84 85.58 289.25 77.41 288.20 69.47 C 286.90 65.06 281.74 65.90 278.18 65.79 C 278.22 75.01 277.89 84.25 278.31 93.46 C 272.27 93.49 266.23 93.19 260.21 93.66 C 260.14 70.67 260.17 47.69 260.17 24.70 M 278.19 37.58 C 278.09 42.99 278.14 48.39 278.14 53.80 C 281.11 53.64 284.65 54.32 286.98 51.98 C 289.70 48.97 289.79 44.26 288.27 40.67 C 286.34 37.05 281.62 37.74 278.19 37.58 Z" />
<path fill="#ffffff" opacity="1.00" d=" M 54.88 26.66 C 59.27 26.27 63.67 26.49 68.07 26.46 C 64.13 39.26 59.36 51.80 55.13 64.52 C 59.22 64.58 63.30 64.58 67.38 64.53 C 67.35 60.60 67.35 56.68 67.36 52.75 C 71.70 52.72 76.03 52.73 80.37 52.73 C 80.41 65.71 80.32 78.69 80.42 91.67 C 76.06 91.79 71.70 91.75 67.34 91.71 C 67.36 86.56 67.36 81.41 67.35 76.26 C 57.56 76.27 47.78 76.29 37.99 76.24 C 43.26 59.60 49.65 43.31 54.88 26.66 Z" />
</g>
<g id="#575757ff">
<path fill="#575757" opacity="1.00" d=" M 33.99 0.00 L 117.94 0.00 C 119.33 1.71 120.62 3.62 120.29 5.95 C 120.24 41.67 120.31 77.39 120.26 113.10 C 120.46 115.12 119.20 116.78 117.85 118.12 C 80.22 117.86 42.59 118.08 4.96 118.01 C 3.29 117.93 1.65 117.68 0.00 117.44 L 0.00 29.37 C 3.74 13.82 18.42 2.21 33.99 0.00 M 54.88 26.66 C 49.65 43.31 43.26 59.60 37.99 76.24 C 47.78 76.29 57.56 76.27 67.35 76.26 C 67.36 81.41 67.36 86.56 67.34 91.71 C 71.70 91.75 76.06 91.79 80.42 91.67 C 80.32 78.69 80.41 65.71 80.37 52.73 C 76.03 52.73 71.70 52.72 67.36 52.75 C 67.35 56.68 67.35 60.60 67.38 64.53 C 63.30 64.58 59.22 64.58 55.13 64.52 C 59.36 51.80 64.13 39.26 68.07 26.46 C 63.67 26.49 59.27 26.27 54.88 26.66 Z" />
<path fill="#575757" opacity="1.00" d=" M 278.18 65.79 C 281.74 65.90 286.90 65.06 288.20 69.47 C 286.62 75.52 287.61 81.82 286.88 87.98 C 284.68 88.12 282.48 88.13 280.29 88.05 C 279.97 86.04 279.65 84.04 279.32 82.04 C 279.29 85.87 279.27 89.73 278.31 93.46 C 277.89 84.25 278.22 75.01 278.18 65.79 Z" />
</g>
<g id="#616160ff">
<path fill="#616160" opacity="1.00" d=" M 131.09 0.00 L 157.37 0.00 C 155.38 0.62 152.82 0.82 151.59 2.73 C 151.36 4.72 151.92 6.69 152.32 8.63 C 154.01 15.57 154.77 22.75 157.39 29.45 C 158.86 34.93 161.62 39.91 163.74 45.15 C 166.13 46.72 167.29 49.31 168.19 51.92 C 169.75 50.74 171.33 49.59 172.88 48.41 C 173.96 49.21 175.03 50.01 176.11 50.80 C 179.21 48.17 183.00 46.59 186.38 44.37 C 189.11 42.40 192.65 42.71 195.74 41.70 C 199.79 40.40 203.52 38.27 207.45 36.65 C 207.35 46.55 207.61 56.46 207.33 66.36 C 205.50 70.04 205.90 74.20 205.87 78.18 C 198.83 79.35 193.15 84.31 186.05 85.20 C 181.04 86.20 176.18 87.81 171.33 89.40 C 167.13 91.37 162.76 87.68 160.79 84.17 C 159.26 80.31 158.39 76.21 156.67 72.41 C 154.48 63.97 154.54 55.03 151.43 46.81 C 150.02 42.21 147.79 37.90 146.75 33.18 C 146.50 30.68 143.89 29.94 142.07 28.86 C 139.70 27.79 139.23 24.48 136.58 23.84 C 133.34 22.97 130.60 25.41 128.18 27.16 C 128.24 19.43 128.02 11.70 128.26 3.99 C 128.08 2.08 129.75 0.97 131.09 0.00 Z" />
</g>
<g id="#6c6c6cff">
<path fill="#6c6c6c" opacity="1.00" d=" M 157.37 0.00 L 279.31 0.00 C 287.57 2.22 296.21 -0.03 304.54 1.70 C 301.45 6.08 295.70 6.64 291.39 9.32 C 287.60 11.73 282.83 10.88 278.93 12.94 C 275.92 14.44 273.05 16.32 269.75 17.15 C 264.86 18.36 260.23 20.67 255.15 21.06 C 249.70 21.53 244.38 22.96 239.35 25.08 C 232.27 24.44 225.15 24.87 218.05 24.74 C 214.55 24.84 211.01 24.39 207.55 25.01 C 207.28 28.89 207.51 32.77 207.45 36.65 C 203.52 38.27 199.79 40.40 195.74 41.70 C 192.65 42.71 189.11 42.40 186.38 44.37 C 183.00 46.59 179.21 48.17 176.11 50.80 C 175.03 50.01 173.96 49.21 172.88 48.41 C 171.33 49.59 169.75 50.74 168.19 51.92 C 167.29 49.31 166.13 46.72 163.74 45.15 C 161.62 39.91 158.86 34.93 157.39 29.45 C 154.77 22.75 154.01 15.57 152.32 8.63 C 151.92 6.69 151.36 4.72 151.59 2.73 C 152.82 0.82 155.38 0.62 157.37 0.00 Z" />
</g>
<g id="#616161ff">
<path fill="#616161" opacity="1.00" d=" M 279.31 0.00 L 333.33 0.00 C 338.41 1.51 343.75 0.92 348.97 1.20 C 348.85 3.05 349.96 5.64 347.89 6.74 C 345.64 8.22 344.19 10.46 342.73 12.66 C 339.27 16.51 333.94 18.30 331.14 22.83 C 331.64 23.01 332.65 23.39 333.16 23.58 C 329.26 24.41 325.21 25.48 322.12 28.14 C 318.92 30.78 317.14 34.66 315.77 38.47 C 311.46 40.17 310.91 45.83 310.52 49.85 C 309.96 49.82 308.83 49.75 308.27 49.72 C 308.92 46.23 309.84 42.39 307.17 39.48 C 306.16 36.16 305.43 32.54 302.91 29.98 C 299.16 25.89 293.33 24.73 288.02 24.72 C 278.74 24.70 269.45 24.73 260.17 24.70 C 260.17 47.69 260.14 70.67 260.21 93.66 C 258.85 89.23 259.21 84.56 259.18 80.00 C 258.89 64.97 259.24 49.92 258.65 34.90 C 258.30 37.05 257.93 39.20 257.54 41.35 C 256.76 39.71 256.02 38.05 255.30 36.39 C 254.77 36.54 253.71 36.83 253.18 36.98 C 251.16 30.81 245.69 26.28 239.35 25.08 C 244.38 22.96 249.70 21.53 255.15 21.06 C 260.23 20.67 264.86 18.36 269.75 17.15 C 273.05 16.32 275.92 14.44 278.93 12.94 C 282.83 10.88 287.60 11.73 291.39 9.32 C 295.70 6.64 301.45 6.08 304.54 1.70 C 296.21 -0.03 287.57 2.22 279.31 0.00 Z" />
<path fill="#616161" opacity="1.00" d=" M 225.46 37.59 C 228.40 37.73 232.06 37.17 234.11 39.81 C 236.38 42.95 236.16 47.41 234.95 50.91 C 233.37 54.66 228.85 54.50 225.46 54.45 C 225.47 48.83 225.47 43.21 225.46 37.59 Z" />
</g>
<g id="#545454ff">
<path fill="#545454" opacity="1.00" d=" M 333.33 0.00 L 382.95 0.00 C 384.55 1.61 385.75 3.63 385.48 5.98 C 385.40 26.00 385.38 46.01 385.37 66.03 C 385.30 73.07 385.81 80.21 384.23 87.13 C 381.68 88.49 378.88 89.38 375.97 89.16 C 369.49 88.87 362.85 89.98 356.55 88.02 C 361.03 82.07 362.16 74.44 362.66 67.20 C 362.95 59.72 363.08 52.17 362.03 44.74 C 361.08 38.37 359.07 31.51 353.64 27.51 C 347.80 23.14 340.10 23.21 333.16 23.58 C 332.65 23.39 331.64 23.01 331.14 22.83 C 333.94 18.30 339.27 16.51 342.73 12.66 C 344.19 10.46 345.64 8.22 347.89 6.74 C 349.96 5.64 348.85 3.05 348.97 1.20 C 343.75 0.92 338.41 1.51 333.33 0.00 Z" />
</g>
<g id="#611d0dff">
<path fill="#611d0d" opacity="1.00" d=" M 382.95 0.00 L 388.20 0.00 C 390.23 4.01 390.20 8.61 390.27 12.99 C 390.30 31.32 390.37 49.65 390.39 67.98 C 390.36 75.32 391.20 82.82 389.18 89.99 C 386.81 99.54 380.55 107.98 372.20 113.15 C 368.42 115.28 364.13 116.30 360.41 118.56 C 357.61 118.59 354.82 118.63 352.03 118.66 C 355.28 116.79 358.87 115.67 362.28 114.15 C 373.01 108.85 381.39 98.81 384.23 87.13 C 385.81 80.21 385.30 73.07 385.37 66.03 C 385.38 46.01 385.40 26.00 385.48 5.98 C 385.75 3.63 384.55 1.61 382.95 0.00 Z" />
</g>
<g id="#902b16ff">
<path fill="#902b16" opacity="1.00" d=" M 388.20 0.00 L 391.88 0.00 C 392.61 1.19 393.33 2.40 393.88 3.69 C 393.24 25.44 393.80 47.22 393.69 68.98 C 393.49 76.34 394.61 83.98 392.13 91.08 C 389.85 97.85 387.60 105.20 381.74 109.80 C 377.46 114.12 371.39 115.48 366.35 118.58 C 364.37 118.57 362.38 118.57 360.41 118.56 C 364.13 116.30 368.42 115.28 372.20 113.15 C 380.55 107.98 386.81 99.54 389.18 89.99 C 391.20 82.82 390.36 75.32 390.39 67.98 C 390.37 49.65 390.30 31.32 390.27 12.99 C 390.20 8.61 390.23 4.01 388.20 0.00 Z" />
</g>
<g id="#c73c1fff">
<path fill="#c73c1f" opacity="1.00" d=" M 391.88 0.00 L 397.15 0.00 C 399.45 3.20 398.73 7.30 398.83 10.99 C 398.52 26.32 399.34 41.63 399.16 56.96 C 399.09 67.21 399.25 77.48 400.31 87.68 C 400.74 92.03 405.87 92.52 408.97 94.26 C 413.22 99.10 419.83 100.39 426.01 100.27 C 436.55 100.07 447.16 100.78 457.65 99.47 C 461.16 99.08 464.00 96.86 466.85 94.99 C 470.61 93.08 474.92 93.24 479.01 93.28 C 484.94 93.44 490.91 92.91 496.79 93.86 C 493.45 101.30 487.87 107.70 480.96 112.03 C 475.27 109.55 468.96 110.88 462.97 110.92 C 451.03 112.52 438.97 111.46 426.97 111.81 C 419.73 112.11 412.59 110.41 405.36 110.63 C 400.70 110.62 396.00 111.26 391.37 110.53 C 390.05 110.43 388.95 109.39 389.08 108.03 C 389.92 104.48 392.01 101.38 392.94 97.85 C 394.48 92.03 395.13 86.00 395.27 79.99 C 395.16 56.32 395.08 32.65 395.10 8.98 C 395.13 7.14 394.65 5.35 393.88 3.69 C 393.33 2.40 392.61 1.19 391.88 0.00 Z" />
</g>
<g id="#ed4826ff">
<path fill="#ed4826" opacity="1.00" d=" M 397.15 0.00 L 497.76 0.00 C 499.02 1.37 500.44 2.91 500.26 4.94 C 500.36 28.62 500.24 52.32 500.31 76.01 C 500.33 79.76 499.96 83.51 499.13 87.17 C 498.57 86.62 497.45 85.53 496.90 84.99 C 492.06 85.90 487.16 85.55 482.29 85.42 C 477.18 86.13 471.91 87.26 467.63 90.28 C 467.73 88.17 466.86 86.21 465.99 84.34 C 464.74 81.98 463.94 78.91 461.24 77.80 C 458.36 76.54 455.24 76.01 452.19 75.33 C 451.85 71.22 455.32 68.53 457.65 65.65 C 464.66 57.94 468.54 47.02 466.48 36.64 C 465.36 31.07 462.90 25.29 458.02 22.05 C 451.18 17.82 442.90 16.23 434.94 17.06 C 428.52 17.65 421.65 19.26 417.13 24.21 C 412.14 28.84 409.51 35.89 410.38 42.65 C 411.02 45.71 412.40 49.43 415.85 50.16 C 420.09 51.30 424.48 51.68 428.77 52.58 C 428.53 53.95 428.52 55.45 427.57 56.57 C 423.53 62.14 418.20 66.72 414.78 72.75 C 412.71 76.10 411.90 79.98 410.77 83.69 C 408.77 86.90 408.44 90.59 408.97 94.26 C 405.87 92.52 400.74 92.03 400.31 87.68 C 399.25 77.48 399.09 67.21 399.16 56.96 C 399.34 41.63 398.52 26.32 398.83 10.99 C 398.73 7.30 399.45 3.20 397.15 0.00 Z" />
</g>
<g id="#b6351cff">
<path fill="#b6351c" opacity="1.00" d=" M 393.88 3.69 C 394.65 5.35 395.13 7.14 395.10 8.98 C 395.08 32.65 395.16 56.32 395.27 79.99 C 395.13 86.00 394.48 92.03 392.94 97.85 C 392.01 101.38 389.92 104.48 389.08 108.03 C 388.95 109.39 390.05 110.43 391.37 110.53 C 396.00 111.26 400.70 110.62 405.36 110.63 C 412.59 110.41 419.73 112.11 426.97 111.81 C 438.97 111.46 451.03 112.52 462.97 110.92 C 468.96 110.88 475.27 109.55 480.96 112.03 C 473.85 116.54 465.42 118.82 457.02 118.65 C 426.79 118.59 396.57 118.72 366.35 118.58 C 371.39 115.48 377.46 114.12 381.74 109.80 C 387.60 105.20 389.85 97.85 392.13 91.08 C 394.61 83.98 393.49 76.34 393.69 68.98 C 393.80 47.22 393.24 25.44 393.88 3.69 Z" />
</g>
<g id="#f26434ff">
<path fill="#f26434" opacity="1.00" d=" M 417.13 24.21 C 421.65 19.26 428.52 17.65 434.94 17.06 C 442.90 16.23 451.18 17.82 458.02 22.05 C 462.90 25.29 465.36 31.07 466.48 36.64 C 468.54 47.02 464.66 57.94 457.65 65.65 C 455.32 68.53 451.85 71.22 452.19 75.33 C 455.24 76.01 458.36 76.54 461.24 77.80 C 463.94 78.91 464.74 81.98 465.99 84.34 C 465.03 88.08 464.00 91.82 462.40 95.35 C 462.34 90.48 462.41 85.62 462.36 80.75 C 455.79 80.63 449.22 80.60 442.65 80.67 C 442.61 78.36 442.62 76.05 442.66 73.74 C 449.51 67.01 457.93 60.92 461.05 51.42 C 462.97 44.75 463.19 37.17 460.08 30.82 C 456.62 24.38 448.82 22.17 442.01 21.75 C 434.51 21.37 426.06 21.83 420.15 27.05 C 414.81 32.05 414.43 39.87 414.21 46.70 C 420.29 46.76 426.38 46.76 432.46 46.71 C 432.45 45.40 432.45 44.10 432.47 42.80 C 434.98 42.30 437.57 42.16 440.04 42.99 C 439.40 50.94 433.06 56.53 427.72 61.73 C 426.26 62.93 425.48 64.64 425.24 66.48 C 417.24 73.83 413.39 84.63 413.47 95.36 C 411.94 91.64 411.02 87.70 410.77 83.69 C 411.90 79.98 412.71 76.10 414.78 72.75 C 418.20 66.72 423.53 62.14 427.57 56.57 C 428.52 55.45 428.53 53.95 428.77 52.58 C 424.48 51.68 420.09 51.30 415.85 50.16 C 412.40 49.43 411.02 45.71 410.38 42.65 C 409.51 35.89 412.14 28.84 417.13 24.21 Z" />
</g>
<g id="#575655ff">
<path fill="#575655" opacity="1.00" d=" M 128.18 27.16 C 130.60 25.41 133.34 22.97 136.58 23.84 C 139.23 24.48 139.70 27.79 142.07 28.86 C 143.89 29.94 146.50 30.68 146.75 33.18 C 147.79 37.90 150.02 42.21 151.43 46.81 C 154.54 55.03 154.48 63.97 156.67 72.41 C 158.39 76.21 159.26 80.31 160.79 84.17 C 162.76 87.68 167.13 91.37 171.33 89.40 C 176.18 87.81 181.04 86.20 186.05 85.20 C 193.15 84.31 198.83 79.35 205.87 78.18 C 205.90 74.20 205.50 70.04 207.33 66.36 C 207.52 75.37 207.38 84.39 207.46 93.40 C 213.45 93.40 219.45 93.40 225.45 93.39 C 225.47 89.84 225.49 86.29 225.46 82.74 C 226.31 84.01 227.12 85.36 228.32 86.36 C 231.89 86.23 235.37 85.24 238.95 85.09 C 244.07 84.93 248.86 82.66 254.03 82.87 C 256.31 83.24 257.77 81.46 259.18 80.00 C 259.21 84.56 258.85 89.23 260.21 93.66 C 257.04 96.17 252.76 94.77 249.07 94.91 C 244.94 94.50 241.02 95.99 237.03 96.69 C 219.84 98.68 202.47 100.50 185.92 105.81 C 177.87 107.19 170.75 111.98 162.56 112.70 C 157.77 111.29 153.23 109.01 149.01 106.37 C 146.19 107.35 143.24 106.88 140.34 106.77 C 137.52 107.29 134.87 108.50 132.11 109.26 C 131.55 108.26 130.98 107.25 130.42 106.25 C 129.91 108.14 129.17 109.96 128.24 111.69 C 128.05 83.51 128.30 55.33 128.18 27.16 Z" />
</g>
<g id="#f67d3fff">
<path fill="#f67d3f" opacity="1.00" d=" M 435.38 34.52 C 436.98 33.90 438.83 33.97 440.44 34.55 C 443.18 36.87 442.85 40.87 442.73 44.10 C 442.70 48.18 440.14 51.58 437.41 54.35 C 433.38 58.42 429.39 62.53 425.24 66.48 C 425.48 64.64 426.26 62.93 427.72 61.73 C 433.06 56.53 439.40 50.94 440.04 42.99 C 437.57 42.16 434.98 42.30 432.47 42.80 C 432.65 39.90 432.83 36.42 435.38 34.52 Z" />
</g>
<g id="#5a5a5aff">
<path fill="#5a5a5a" opacity="1.00" d=" M 257.54 41.35 C 257.93 39.20 258.30 37.05 258.65 34.90 C 259.24 49.92 258.89 64.97 259.18 80.00 C 257.77 81.46 256.31 83.24 254.03 82.87 C 248.86 82.66 244.07 84.93 238.95 85.09 C 235.37 85.24 231.89 86.23 228.32 86.36 C 227.12 85.36 226.31 84.01 225.46 82.74 C 225.42 77.61 225.53 72.48 225.42 67.35 C 233.40 67.38 242.56 67.71 248.80 61.82 C 255.21 55.44 255.44 45.21 253.18 36.98 C 253.71 36.83 254.77 36.54 255.30 36.39 C 256.02 38.05 256.76 39.71 257.54 41.35 Z" />
</g>
<g id="#565656ff">
<path fill="#565656" opacity="1.00" d=" M 335.38 36.36 C 337.68 34.74 341.66 35.39 342.66 38.25 C 343.92 41.33 343.99 44.73 344.21 48.01 C 344.42 55.67 344.45 63.34 344.17 71.00 C 343.91 74.17 343.85 77.51 342.40 80.42 C 340.78 83.61 335.27 83.39 333.96 80.03 C 332.39 76.26 332.48 72.07 332.31 68.06 C 332.22 60.08 332.03 52.07 332.62 44.10 C 333.00 41.44 333.12 38.21 335.38 36.36 Z" />
</g>
<g id="#5d5d5dff">
<path fill="#5d5d5d" opacity="1.00" d=" M 278.19 37.58 C 281.62 37.74 286.34 37.05 288.27 40.67 C 289.79 44.26 289.70 48.97 286.98 51.98 C 284.65 54.32 281.11 53.64 278.14 53.80 C 278.14 48.39 278.09 42.99 278.19 37.58 Z" />
</g>
<g id="#585858ff">
<path fill="#585858" opacity="1.00" d=" M 310.52 49.85 C 310.91 45.83 311.46 40.17 315.77 38.47 C 313.53 47.11 313.39 56.11 313.70 64.97 C 314.10 72.62 315.04 80.65 319.36 87.21 C 315.41 88.66 310.48 86.89 307.20 89.84 C 305.54 81.73 308.25 73.01 304.87 65.22 C 303.35 61.43 299.19 60.12 295.58 59.22 C 298.46 58.70 301.47 57.79 303.40 55.43 C 307.13 51.07 307.32 44.94 307.17 39.48 C 309.84 42.39 308.92 46.23 308.27 49.72 C 308.83 49.75 309.96 49.82 310.52 49.85 Z" />
</g>
<g id="#4a4a4aff">
<path fill="#4a4a4a" opacity="1.00" d=" M 288.20 69.47 C 289.25 77.41 287.84 85.58 290.12 93.38 C 296.74 93.45 303.36 93.46 309.98 93.37 C 309.03 92.21 308.10 91.04 307.20 89.84 C 310.48 86.89 315.41 88.66 319.36 87.21 C 323.44 92.64 330.49 94.41 336.97 94.48 C 343.93 94.71 351.71 93.54 356.55 88.02 C 362.85 89.98 369.49 88.87 375.97 89.16 C 378.88 89.38 381.68 88.49 384.23 87.13 C 381.39 98.81 373.01 108.85 362.28 114.15 C 358.87 115.67 355.28 116.79 352.03 118.66 C 279.36 118.66 206.68 118.67 134.00 118.65 C 129.97 119.21 127.39 115.37 128.24 111.69 C 129.17 109.96 129.91 108.14 130.42 106.25 C 130.98 107.25 131.55 108.26 132.11 109.26 C 134.87 108.50 137.52 107.29 140.34 106.77 C 143.24 106.88 146.19 107.35 149.01 106.37 C 153.23 109.01 157.77 111.29 162.56 112.70 C 170.75 111.98 177.87 107.19 185.92 105.81 C 202.47 100.50 219.84 98.68 237.03 96.69 C 241.02 95.99 244.94 94.50 249.07 94.91 C 252.76 94.77 257.04 96.17 260.21 93.66 C 266.23 93.19 272.27 93.49 278.31 93.46 C 279.27 89.73 279.29 85.87 279.32 82.04 C 279.65 84.04 279.97 86.04 280.29 88.05 C 282.48 88.13 284.68 88.12 286.88 87.98 C 287.61 81.82 286.62 75.52 288.20 69.47 Z" />
</g>
<g id="#f69050ff">
<path fill="#f69050" opacity="1.00" d=" M 436.56 80.63 C 438.39 78.17 440.37 75.80 442.66 73.74 C 442.62 76.05 442.61 78.36 442.65 80.67 C 440.62 80.68 438.58 80.66 436.56 80.63 Z" />
</g>
<g id="#df5f31ff">
<path fill="#df5f31" opacity="1.00" d=" M 408.97 94.26 C 408.44 90.59 408.77 86.90 410.77 83.69 C 411.02 87.70 411.94 91.64 413.47 95.36 C 429.78 95.45 446.09 95.47 462.40 95.35 C 464.00 91.82 465.03 88.08 465.99 84.34 C 466.86 86.21 467.73 88.17 467.63 90.28 C 467.41 91.85 467.11 93.42 466.85 94.99 C 464.00 96.86 461.16 99.08 457.65 99.47 C 447.16 100.78 436.55 100.07 426.01 100.27 C 419.83 100.39 413.22 99.10 408.97 94.26 Z" />
</g>
<g id="#de4123ff">
<path fill="#de4123" opacity="1.00" d=" M 467.63 90.28 C 471.91 87.26 477.18 86.13 482.29 85.42 C 487.16 85.55 492.06 85.90 496.90 84.99 C 497.45 85.53 498.57 86.62 499.13 87.17 C 498.48 89.44 497.74 91.69 496.79 93.86 C 490.91 92.91 484.94 93.44 479.01 93.28 C 474.92 93.24 470.61 93.08 466.85 94.99 C 467.11 93.42 467.41 91.85 467.63 90.28 Z" />
</g>
<g id="#929292ff">
<path fill="#929292" opacity="1.00" d=" M 0.00 117.44 C 1.65 117.68 3.29 117.93 4.96 118.01 C 42.59 118.08 80.22 117.86 117.85 118.12 L 116.83 119.00 L 0.00 119.00 L 0.00 117.44 Z" />
</g>
</svg>
